…
    ## 
    ## ── Column specification ────────────────────────────────────────────────────────
    ## cols(
    ##   year = col_double(),
    ##   mean = col_double(),
    ##   unc = col_double()
    ## )

``` r
CO2_mean
```

    ## # A tibble: 63 × 3
    ##     year  mean   unc
    ##    <dbl> <dbl> <dbl>
    ##  1  1959  316.  0.12
    ##  2  1960  317.  0.12
    ##  3  1961  318.  0.12
    ##  4  1962  318.  0.12
    ##  5  1963  319.  0.12
    ##  6  1964  320.  0.12
    ##  7  1965  320.  0.12
    ##  8  1966  321.  0.12
    ##  9  1967  322.  0.12
    ## 10  1968  323.  0.12
    ## # … with 53 more rows
…
